[{
    "id": 1,
    "first_name": "Seward",
    "last_name": "Hilley",
    "email": "shilley0@moonfruit.com",
    "gender": "Male",
    "ip_address": "191.72.252.225",
    "ciudad": "San Jose"
  }, {
    "id": 2,
    "first_name": "Dyan",
    "last_name": "Leving",
    "email": "dleving1@ow.ly",
    "gender": "Female",
    "ip_address": "197.80.136.58",
    "ciudad": "Linhares"
  }, {
    "id": 3,
    "first_name": "Phillipe",
    "last_name": "Delahunt",
    "email": "pdelahunt2@spiegel.de",
    "gender": "Male",
    "ip_address": "68.250.92.190",
    "ciudad": "Chakwāl"
  }, {
    "id": 4,
    "first_name": "Cathrine",
    "last_name": "Hawksby",
    "email": "chawksby3@sohu.com",
    "gender": "Female",
    "ip_address": "201.2.81.253",
    "ciudad": "Poja Nae"
  }, {
    "id": 5,
    "first_name": "Maggy",
    "last_name": "Soonhouse",
    "email": "msoonhouse4@economist.com",
    "gender": "Female",
    "ip_address": "166.255.251.138",
    "ciudad": "Tanjungbatu"
  }, {
    "id": 6,
    "first_name": "Kellsie",
    "last_name": "Teers",
    "email": "kteers5@360.cn",
    "gender": "Female",
    "ip_address": "148.53.200.39",
    "ciudad": "Coaticook"
  }, {
    "id": 7,
    "first_name": "Angelita",
    "last_name": "Fridlington",
    "email": "afridlington6@ucoz.com",
    "gender": "Female",
    "ip_address": "160.39.81.248",
    "ciudad": "Madīnat Lab‘ūs"
  }, {
    "id": 8,
    "first_name": "Natty",
    "last_name": "Stileman",
    "email": "nstileman7@dedecms.com",
    "gender": "Female",
    "ip_address": "182.126.213.41",
    "ciudad": "Hengshan"
  }, {
    "id": 9,
    "first_name": "Ty",
    "last_name": "Borzoni",
    "email": "tborzoni8@comcast.net",
    "gender": "Male",
    "ip_address": "48.183.168.187",
    "ciudad": "Rudong"
  }, {
    "id": 10,
    "first_name": "Linc",
    "last_name": "Arrigucci",
    "email": "larrigucci9@wufoo.com",
    "gender": "Male",
    "ip_address": "31.116.245.134",
    "ciudad": "Tall Rif‘at"
  }]